^E:\GED2\O3D_1-12_BULL_3_PLAYER\BUILD\CMAKEFILES\61D3738FABB1A06E5752093AF739F75A\GENERATE.STAMP.RULE
C:\PROGRAM FILES\CMAKE\SHARE\CMAKE-3.19\MODULES\CMAKECINFORMATION.CMAKE
C:\PROGRAM FILES\CMAKE\SHARE\CMAKE-3.19\MODULES\CMAKECXXINFORMATION.CMAKE
C:\PROGRAM FILES\CMAKE\SHARE\CMAKE-3.19\MODULES\CMAKECOMMONLANGUAGEINCLUDE.CMAKE
C:\PROGRAM FILES\CMAKE\SHARE\CMAKE-3.19\MODULES\CMAKEGENERICSYSTEM.CMAKE
C:\PROGRAM FILES\CMAKE\SHARE\CMAKE-3.19\MODULES\CMAKEINITIALIZECONFIGS.CMAKE
C:\PROGRAM FILES\CMAKE\SHARE\CMAKE-3.19\MODULES\CMAKELANGUAGEINFORMATION.CMAKE
C:\PROGRAM FILES\CMAKE\SHARE\CMAKE-3.19\MODULES\CMAKERCINFORMATION.CMAKE
C:\PROGRAM FILES\CMAKE\SHARE\CMAKE-3.19\MODULES\CMAKESYSTEMSPECIFICINFORMATION.CMAKE
C:\PROGRAM FILES\CMAKE\SHARE\CMAKE-3.19\MODULES\CMAKESYSTEMSPECIFICINITIALIZE.CMAKE
C:\PROGRAM FILES\CMAKE\SHARE\CMAKE-3.19\MODULES\CHECKCSOURCECOMPILES.CMAKE
C:\PROGRAM FILES\CMAKE\SHARE\CMAKE-3.19\MODULES\CHECKINCLUDEFILE.CMAKE
C:\PROGRAM FILES\CMAKE\SHARE\CMAKE-3.19\MODULES\CHECKLIBRARYEXISTS.CMAKE
C:\PROGRAM FILES\CMAKE\SHARE\CMAKE-3.19\MODULES\COMPILER\CMAKECOMMONCOMPILERMACROS.CMAKE
C:\PROGRAM FILES\CMAKE\SHARE\CMAKE-3.19\MODULES\COMPILER\MSVC-C.CMAKE
C:\PROGRAM FILES\CMAKE\SHARE\CMAKE-3.19\MODULES\COMPILER\MSVC-CXX.CMAKE
C:\PROGRAM FILES\CMAKE\SHARE\CMAKE-3.19\MODULES\FINDBULLET.CMAKE
C:\PROGRAM FILES\CMAKE\SHARE\CMAKE-3.19\MODULES\FINDPACKAGEHANDLESTANDARDARGS.CMAKE
C:\PROGRAM FILES\CMAKE\SHARE\CMAKE-3.19\MODULES\FINDPACKAGEMESSAGE.CMAKE
C:\PROGRAM FILES\CMAKE\SHARE\CMAKE-3.19\MODULES\FINDTHREADS.CMAKE
C:\PROGRAM FILES\CMAKE\SHARE\CMAKE-3.19\MODULES\INTERNAL\CHECKSOURCECOMPILES.CMAKE
C:\PROGRAM FILES\CMAKE\SHARE\CMAKE-3.19\MODULES\PLATFORM\WINDOWS-MSVC-C.CMAKE
C:\PROGRAM FILES\CMAKE\SHARE\CMAKE-3.19\MODULES\PLATFORM\WINDOWS-MSVC-CXX.CMAKE
C:\PROGRAM FILES\CMAKE\SHARE\CMAKE-3.19\MODULES\PLATFORM\WINDOWS-MSVC.CMAKE
C:\PROGRAM FILES\CMAKE\SHARE\CMAKE-3.19\MODULES\PLATFORM\WINDOWS.CMAKE
C:\PROGRAM FILES\CMAKE\SHARE\CMAKE-3.19\MODULES\PLATFORM\WINDOWSPATHS.CMAKE
E:\GED2\O3D_1-12_BULL_3_PLAYER\CMAKELISTS.TXT
E:\GED2\O3D_1-12_BULL_3_PLAYER\BUILD\CMAKEFILES\3.19.2\CMAKECCOMPILER.CMAKE
E:\GED2\O3D_1-12_BULL_3_PLAYER\BUILD\CMAKEFILES\3.19.2\CMAKECXXCOMPILER.CMAKE
E:\GED2\O3D_1-12_BULL_3_PLAYER\BUILD\CMAKEFILES\3.19.2\CMAKERCCOMPILER.CMAKE
E:\GED2\O3D_1-12_BULL_3_PLAYER\BUILD\CMAKEFILES\3.19.2\CMAKESYSTEM.CMAKE
E:\GED2\O3D_1-12_BULL_3_PLAYER\TOOLS\CMAKE\COMMON.CMAKE
E:\GED2\OGRE\BUILD\SDK\CMAKE\OGRECONFIG.CMAKE
E:\GED2\OGRE\BUILD\SDK\CMAKE\OGRECONFIGVERSION.CMAKE
E:\GED2\OGRE\BUILD\SDK\CMAKE\OGRETARGETS-RELWITHDEBINFO.CMAKE
E:\GED2\OGRE\BUILD\SDK\CMAKE\OGRETARGETS.CMAKE
